…
``` r
unique(so_df$dataset) #fish samples
```

    ## [1] "TDR118" "TDR119" "TDR124" "TDR125" "TDR126" "TDR127" "TDR128"

``` r
#numbers of cells in each cell type (= zebrafish anatomy ontology class)
cells_celltype1 <- so_df %>% group_by(zebrafish_anatomy_ontology_class) %>% summarise(n_cells = n())
cells_celltype1
```

    ## # A tibble: 40 × 2
    ##    zebrafish_anatomy_ontology_class n_cells
    ##    <chr>                              <int>
    ##  1 NMPs                                1904
    ##  2 PSM                                 4674
    ##  3 differentiating_neurons             2242
    ##  4 endocrine_pancreas                  3075
    ##  5 endoderm                            1881
    ##  6 enteric_neurons                      733
    ##  7 epidermis                           3327
    ##  8 epidermis2                          2561
    ##  9 epidermis3                          1840
    ## 10 epidermis4                          1768
    ## # ℹ 30 more rows
…
    ## `summarise()` has regrouped the output.
    ## ℹ Summaries were computed grouped by zebrafish_anatomy_ontology_class and
    ##   developmental_stage.
    ## ℹ Output is grouped by zebrafish_anatomy_ontology_class.
    ## ℹ Use `summarise(.groups = "drop_last")` to silence this message.
    ## ℹ Use `summarise(.by = c(zebrafish_anatomy_ontology_class,
    ##   developmental_stage))` for per-operation grouping (`?dplyr::dplyr_by`)
    ##   instead.

``` r
cells_time1 
```

    ## # A tibble: 236 × 3
    ## # Groups:   zebrafish_anatomy_ontology_class [40]
    ##    zebrafish_anatomy_ontology_class developmental_stage n_cells
    ##    <chr>                            <chr>                 <int>
    ##  1 NMPs                             0somites                630
    ##  2 NMPs                             10somites               254
    ##  3 NMPs                             15somites               340
    ##  4 NMPs                             20somites                99
    ##  5 NMPs                             30somites                 6
    ##  6 NMPs                             5somites                575
    ##  7 PSM                              0somites               1316
    ##  8 PSM                              10somites               560
    ##  9 PSM                              15somites              1043
    ## 10 PSM                              20somites               368
    ## # ℹ 226 more rows
…
``` r
filtered <- filtered %>% mutate(keep_cell = ifelse(!rm, paste(zebrafish_anatomy_ontology_class, timepoint), ""))

fil_cells <- filtered$keep_cell #cells we are keeping 

so_df$cell_name <- paste(so_df$zebrafish_anatomy_ontology_class, so_df$timepoint)

filtered_df <- so_df %>% filter(cell_name %in% fil_cells)

#comparing the filtered data with unfiltered data by plotting
cells_celltype2 <- filtered_df %>% group_by(zebrafish_anatomy_ontology_class) %>% summarise(n_cells = n())
cells_celltype2
```

    ## # A tibble: 39 × 2
    ##    zebrafish_anatomy_ontology_class n_cells
    ##    <chr>                              <int>
    ##  1 NMPs                                1799
    ##  2 PSM                                 4650
    ##  3 differentiating_neurons             2050
    ##  4 endocrine_pancreas                  3031
    ##  5 endoderm                            1853
    ##  6 enteric_neurons                      636
    ##  7 epidermis                           3327
    ##  8 epidermis2                          2560
    ##  9 epidermis3                          1840
    ## 10 epidermis4                          1763
    ## # ℹ 29 more rows
…
    ## `summarise()` has regrouped the output.
    ## ℹ Summaries were computed grouped by zebrafish_anatomy_ontology_class and
    ##   developmental_stage.
    ## ℹ Output is grouped by zebrafish_anatomy_ontology_class.
    ## ℹ Use `summarise(.groups = "drop_last")` to silence this message.
    ## ℹ Use `summarise(.by = c(zebrafish_anatomy_ontology_class,
    ##   developmental_stage))` for per-operation grouping (`?dplyr::dplyr_by`)
    ##   instead.

``` r
cells_time2 
```

    ## # A tibble: 196 × 3
    ## # Groups:   zebrafish_anatomy_ontology_class [39]
    ##    zebrafish_anatomy_ontology_class developmental_stage n_cells
    ##    <chr>                            <chr>                 <int>
    ##  1 NMPs                             0somites                630
    ##  2 NMPs                             10somites               254
    ##  3 NMPs                             15somites               340
    ##  4 NMPs                             5somites                575
    ##  5 PSM                              0somites               1316
    ##  6 PSM                              10somites               560
    ##  7 PSM                              15somites              1043
    ##  8 PSM                              20somites               368
    ##  9 PSM                              5somites               1363
    ## 10 differentiating_neurons          15somites               494
    ## # ℹ 186 more rows
…
